EESchema Schematic File Version 4
EELAYER 30 0
EELAYER END
$Descr A4 11693 8268
encoding utf-8
Sheet 1 1
Title "controller for ridondant psu server HP-DSP"
Date "2020-04-06"
Rev "1.0"
Comp ""
Comment1 ""
Comment2 ""
Comment3 ""
Comment4 ""
$EndDescr
$Comp
L Connector_Generic:Conn_02x35_Counter_Clockwise J1
U 1 1 5E8C0F4A
P 2050 3750
F 0 "J1" H 2100 5667 50  0000 C CNN
F 1 "Conn_02x35_Counter_Clockwise" H 2100 5576 50  0000 C CNN
F 2 "mylibrary:Header_Straight_2x35_Pitch2.54mm" H 2050 3750 50  0001 C CNN
F 3 "~" H 2050 3750 50  0001 C CNN
	1    2050 3750
	1    0    0    -1  
$EndComp
Wire Wire Line
	1700 4050 1850 4050
Wire Wire Line
	1850 4150 1700 4150
Connection ~ 1700 4150
Wire Wire Line
	1700 4150 1700 4050
Wire Wire Line
	1850 4250 1700 4250
Connection ~ 1700 4250
Wire Wire Line
	1700 4250 1700 4150
Wire Wire Line
	1850 4350 1700 4350
Connection ~ 1700 4350
Wire Wire Line
	1700 4350 1700 4250
Wire Wire Line
	1850 4450 1700 4450
Connection ~ 1700 4450
Wire Wire Line
	1700 4450 1700 4350
Wire Wire Line
	1850 4550 1700 4550
Connection ~ 1700 4550
Wire Wire Line
	1700 4550 1700 4450
Wire Wire Line
	1850 4650 1700 4650
Connection ~ 1700 4650
Wire Wire Line
	1700 4650 1700 4550
Wire Wire Line
	1850 4750 1700 4750
Wire Wire Line
	1700 4650 1700 4750
Connection ~ 1700 4750
Wire Wire Line
	1700 4750 1700 4850
Wire Wire Line
	1850 4850 1700 4850
Connection ~ 1700 4850
Wire Wire Line
	1700 4850 1700 4950
Wire Wire Line
	1850 4950 1700 4950
Connection ~ 1700 4950
Wire Wire Line
	1850 5050 1700 5050
Wire Wire Line
	1700 4950 1700 5050
Connection ~ 1700 5050
Wire Wire Line
	1700 5050 1700 5150
Wire Wire Line
	1850 5150 1700 5150
Connection ~ 1700 5150
Wire Wire Line
	1700 5150 1700 5250
Wire Wire Line
	1850 5250 1700 5250
Connection ~ 1700 5250
Wire Wire Line
	1700 5250 1700 5350
Wire Wire Line
	1850 5350 1700 5350
Connection ~ 1700 5350
Wire Wire Line
	1700 5350 1700 5450
Wire Wire Line
	2350 4050 2500 4050
Wire Wire Line
	2500 4050 2500 4150
Wire Wire Line
	2500 5450 2350 5450
Wire Wire Line
	2350 4150 2500 4150
Connection ~ 2500 4150
Wire Wire Line
	2500 4150 2500 4250
Wire Wire Line
	2350 4250 2500 4250
Connection ~ 2500 4250
Wire Wire Line
	2500 4250 2500 4350
Wire Wire Line
	2350 4350 2500 4350
Connection ~ 2500 4350
Wire Wire Line
	2500 4350 2500 4450
Wire Wire Line
	2350 4450 2500 4450
Connection ~ 2500 4450
Wire Wire Line
	2500 4450 2500 4550
Wire Wire Line
	2350 4550 2500 4550
Connection ~ 2500 4550
Wire Wire Line
	2500 4550 2500 4650
Wire Wire Line
	2350 4650 2500 4650
Connection ~ 2500 4650
Wire Wire Line
	2500 4650 2500 4750
Wire Wire Line
	2350 4750 2500 4750
Connection ~ 2500 4750
Wire Wire Line
	2500 4750 2500 4850
Wire Wire Line
	2350 4850 2500 4850
Connection ~ 2500 4850
Wire Wire Line
	2500 4850 2500 4950
Wire Wire Line
	2350 4950 2500 4950
Connection ~ 2500 4950
Wire Wire Line
	2500 4950 2500 5050
Wire Wire Line
	2350 5050 2500 5050
Connection ~ 2500 5050
Wire Wire Line
	2500 5050 2500 5150
Wire Wire Line
	2350 5150 2500 5150
Connection ~ 2500 5150
Wire Wire Line
	2500 5150 2500 5250
Wire Wire Line
	2350 5250 2500 5250
Connection ~ 2500 5250
Wire Wire Line
	2500 5250 2500 5350
Wire Wire Line
	2350 5350 2500 5350
Connection ~ 2500 5350
Wire Wire Line
	2500 5350 2500 5450
$Comp
L power:GND #PWR04
U 1 1 5E8DDC74
P 1700 5550
F 0 "#PWR04" H 1700 5300 50  0001 C CNN
F 1 "GND" H 1705 5377 50  0000 C CNN
F 2 "" H 1700 5550 50  0001 C CNN
F 3 "" H 1700 5550 50  0001 C CNN
	1    1700 5550
	1    0    0    -1  
$EndComp
$Comp
L power:GND #PWR05
U 1 1 5E8DE2AD
P 2500 5550
F 0 "#PWR05" H 2500 5300 50  0001 C CNN
F 1 "GND" H 2505 5377 50  0000 C CNN
F 2 "" H 2500 5550 50  0001 C CNN
F 3 "" H 2500 5550 50  0001 C CNN
	1    2500 5550
	1    0    0    -1  
$EndComp
Wire Wire Line
	1850 5450 1700 5450
Wire Wire Line
	1700 5550 1700 5450
Connection ~ 1700 5450
Wire Wire Line
	2500 5550 2500 5450
Connection ~ 2500 5450
Wire Wire Line
	1850 2750 1700 2750
Wire Wire Line
	1700 2750 1700 2850
Wire Wire Line
	1700 3950 1850 3950
Wire Wire Line
	1850 3850 1700 3850
Connection ~ 1700 3850
Wire Wire Line
	1700 3850 1700 3950
Wire Wire Line
	1850 3750 1700 3750
Connection ~ 1700 3750
Wire Wire Line
	1700 3750 1700 3850
Wire Wire Line
	1850 3650 1700 3650
Connection ~ 1700 3650
Wire Wire Line
	1700 3650 1700 3750
Wire Wire Line
	1850 3550 1700 3550
Connection ~ 1700 3550
Wire Wire Line
	1700 3550 1700 3650
Wire Wire Line
	1850 3450 1700 3450
Connection ~ 1700 3450
Wire Wire Line
	1700 3450 1700 3550
Wire Wire Line
	1850 3350 1700 3350
Connection ~ 1700 3350
Wire Wire Line
	1700 3350 1700 3450
Wire Wire Line
	1850 3250 1700 3250
Connection ~ 1700 3250
Wire Wire Line
	1700 3250 1700 3350
Wire Wire Line
	1850 3150 1700 3150
Connection ~ 1700 3150
Wire Wire Line
	1700 3150 1700 3250
Wire Wire Line
	1850 3050 1700 3050
Connection ~ 1700 3050
Wire Wire Line
	1700 3050 1700 3150
Wire Wire Line
	1850 2950 1700 2950
Connection ~ 1700 2950
Wire Wire Line
	1700 2950 1700 3050
Wire Wire Line
	1850 2850 1700 2850
Connection ~ 1700 2850
Wire Wire Line
	1700 2850 1700 2950
Wire Wire Line
	2350 3950 2500 3950
Wire Wire Line
	2500 3950 2500 3850
Wire Wire Line
	2500 2750 2350 2750
Wire Wire Line
	2350 2850 2500 2850
Connection ~ 2500 2850
Wire Wire Line
	2500 2850 2500 2750
Wire Wire Line
	2350 2950 2500 2950
Connection ~ 2500 2950
Wire Wire Line
	2500 2950 2500 2850
Wire Wire Line
	2350 3050 2500 3050
Connection ~ 2500 3050
Wire Wire Line
	2500 3050 2500 2950
Wire Wire Line
	2350 3150 2500 3150
Connection ~ 2500 3150
Wire Wire Line
	2500 3150 2500 3050
Wire Wire Line
	2350 3250 2500 3250
Connection ~ 2500 3250
Wire Wire Line
	2500 3250 2500 3150
Wire Wire Line
	2350 3350 2500 3350
Connection ~ 2500 3350
Wire Wire Line
	2500 3350 2500 3250
Wire Wire Line
	2350 3450 2500 3450
Connection ~ 2500 3450
Wire Wire Line
	2500 3450 2500 3350
Wire Wire Line
	2350 3550 2500 3550
Connection ~ 2500 3550
Wire Wire Line
	2500 3550 2500 3450
Wire Wire Line
	2350 3650 2500 3650
Connection ~ 2500 3650
Wire Wire Line
	2500 3650 2500 3550
Wire Wire Line
	2350 3750 2500 3750
Connection ~ 2500 3750
Wire Wire Line
	2500 3750 2500 3650
Wire Wire Line
	2350 3850 2500 3850
Connection ~ 2500 3850
Wire Wire Line
	2500 3850 2500 3750
Wire Wire Line
	1850 2650 1300 2650
Text Label 1300 2650 0    50   ~ 0
12VSB
$Comp
L Device:R R3
U 1 1 5E91B982
P 4500 1300
F 0 "R3" H 4570 1346 50  0000 L CNN
F 1 "10k" H 4570 1255 50  0000 L CNN
F 2 "Resistor_SMD:R_0805_2012Metric_Pad1.15x1.40mm_HandSolder" V 4430 1300 50  0001 C CNN
F 3 "~" H 4500 1300 50  0001 C CNN
	1    4500 1300
	1    0    0    -1  
$EndComp
$Comp
L Device:R R12
U 1 1 5E91BE69
P 5750 1350
F 0 "R12" H 5820 1396 50  0000 L CNN
F 1 "10k" H 5820 1305 50  0000 L CNN
F 2 "Resistor_SMD:R_0805_2012Metric_Pad1.15x1.40mm_HandSolder" V 5680 1350 50  0001 C CNN
F 3 "~" H 5750 1350 50  0001 C CNN
	1    5750 1350
	1    0    0    -1  
$EndComp
$Comp
L Device:R R4
U 1 1 5E91CB15
P 4500 1800
F 0 "R4" H 4570 1846 50  0000 L CNN
F 1 "6.8k" H 4570 1755 50  0000 L CNN
F 2 "Resistor_SMD:R_0805_2012Metric_Pad1.15x1.40mm_HandSolder" V 4430 1800 50  0001 C CNN
F 3 "~" H 4500 1800 50  0001 C CNN
	1    4500 1800
	-1   0    0    1   
$EndComp
$Comp
L Device:R R13
U 1 1 5E91D515
P 5750 1800
F 0 "R13" H 5820 1846 50  0000 L CNN
F 1 "6.8k" H 5820 1755 50  0000 L CNN
F 2 "Resistor_SMD:R_0805_2012Metric_Pad1.15x1.40mm_HandSolder" V 5680 1800 50  0001 C CNN
F 3 "~" H 5750 1800 50  0001 C CNN
	1    5750 1800
	1    0    0    -1  
$EndComp
$Comp
L Device:R R5
U 1 1 5E91D93D
P 4500 2300
F 0 "R5" H 4570 2346 50  0000 L CNN
F 1 "5.6k" H 4570 2255 50  0000 L CNN
F 2 "Resistor_SMD:R_0805_2012Metric_Pad1.15x1.40mm_HandSolder" V 4430 2300 50  0001 C CNN
F 3 "~" H 4500 2300 50  0001 C CNN
	1    4500 2300
	1    0    0    -1  
$EndComp
$Comp
L Device:R R14
U 1 1 5E91DD18
P 5750 2350
F 0 "R14" H 5820 2396 50  0000 L CNN
F 1 "5.6k" H 5820 2305 50  0000 L CNN
F 2 "Resistor_SMD:R_0805_2012Metric_Pad1.15x1.40mm_HandSolder" V 5680 2350 50  0001 C CNN
F 3 "~" H 5750 2350 50  0001 C CNN
	1    5750 2350
	1    0    0    -1  
$EndComp
Wire Wire Line
	4500 2550 4500 2450
Text Label 4200 6250 0    50   ~ 0
12VSB
Wire Wire Line
	5150 2050 4500 2050
Text Label 2900 2050 2    50   ~ 0
PSU2_PRES
$Comp
L Connector_Generic:Conn_02x06_Odd_Even J4
U 1 1 5E9B5EF3
P 8950 4550
F 0 "J4" H 9000 4967 50  0000 C CNN
F 1 "Conn_02x06_Odd_Even" H 9000 4876 50  0000 C CNN
F 2 "Connector_PinHeader_2.54mm:PinHeader_2x06_P2.54mm_Vertical" H 8950 4550 50  0001 C CNN
F 3 "~" H 8950 4550 50  0001 C CNN
	1    8950 4550
	1    0    0    -1  
$EndComp
Wire Wire Line
	9250 4750 9900 4750
Wire Wire Line
	9250 4850 9900 4850
Text Label 8100 4750 0    50   ~ 0
DATA_SCL
Text Label 9900 4750 2    50   ~ 0
DATA_SDA
Wire Wire Line
	2350 2550 2900 2550
Wire Wire Line
	2350 2450 2900 2450
Text Label 2900 2550 2    50   ~ 0
DATA_SDA
Text Label 2900 2450 2    50   ~ 0
DATA_SCL
Wire Wire Line
	2350 2150 2900 2150
Text Label 2900 2150 2    50   ~ 0
PSU1_PON
Wire Wire Line
	2350 2250 2900 2250
Text Label 2900 2250 2    50   ~ 0
PSU1_OK
Text Label 1300 2150 0    50   ~ 0
PSU2_PON
Wire Wire Line
	1300 2150 1850 2150
Text Label 1300 2250 0    50   ~ 0
PSU2_OK
Wire Wire Line
	1300 2250 1850 2250
Text Label 1300 2350 0    50   ~ 0
PSU2_LOAD
Wire Wire Line
	1300 2350 1850 2350
Wire Wire Line
	2350 2350 2900 2350
Text Label 2900 2350 2    50   ~ 0
PSU1_LOAD
$Comp
L Device:R R6
U 1 1 5EA3CABD
P 4500 6550
F 0 "R6" H 4570 6596 50  0000 L CNN
F 1 "1k" H 4570 6505 50  0000 L CNN
F 2 "Resistor_SMD:R_0805_2012Metric_Pad1.15x1.40mm_HandSolder" V 4430 6550 50  0001 C CNN
F 3 "~" H 4500 6550 50  0001 C CNN
	1    4500 6550
	1    0    0    -1  
$EndComp
Wire Wire Line
	4500 6400 4500 6250
$Comp
L Device:LED D3
U 1 1 5EA47842
P 4500 6950
F 0 "D3" V 4539 6833 50  0000 R CNN
F 1 "LED" V 4448 6833 50  0000 R CNN
F 2 "LED_SMD:LED_0805_2012Metric_Pad1.15x1.40mm_HandSolder" H 4500 6950 50  0001 C CNN
F 3 "~" H 4500 6950 50  0001 C CNN
	1    4500 6950
	0    -1   -1   0   
$EndComp
Wire Wire Line
	4500 6800 4500 6700
Wire Wire Line
	4500 7200 4500 7100
Wire Wire Line
	8750 4850 8650 4850
$Comp
L power:+12V #PWR07
U 1 1 5EA5B66A
P 2850 3150
F 0 "#PWR07" H 2850 3000 50  0001 C CNN
F 1 "+12V" H 2865 3323 50  0000 C CNN
F 2 "" H 2850 3150 50  0001 C CNN
F 3 "" H 2850 3150 50  0001 C CNN
	1    2850 3150
	1    0    0    -1  
$EndComp
$Comp
L power:+12V #PWR03
U 1 1 5EA5C6C3
P 1300 3100
F 0 "#PWR03" H 1300 2950 50  0001 C CNN
F 1 "+12V" H 1315 3273 50  0000 C CNN
F 2 "" H 1300 3100 50  0001 C CNN
F 3 "" H 1300 3100 50  0001 C CNN
	1    1300 3100
	1    0    0    -1  
$EndComp
$Comp
L power:+12V #PWR012
U 1 1 5EA5E311
P 4950 6250
F 0 "#PWR012" H 4950 6100 50  0001 C CNN
F 1 "+12V" H 4965 6423 50  0000 C CNN
F 2 "" H 4950 6250 50  0001 C CNN
F 3 "" H 4950 6250 50  0001 C CNN
	1    4950 6250
	1    0    0    -1  
$EndComp
$Comp
L Device:R R9
U 1 1 5EA628FC
P 4950 6550
F 0 "R9" H 5020 6596 50  0000 L CNN
F 1 "1k" H 5020 6505 50  0000 L CNN
F 2 "Resistor_SMD:R_0805_2012Metric_Pad1.15x1.40mm_HandSolder" V 4880 6550 50  0001 C CNN
F 3 "~" H 4950 6550 50  0001 C CNN
	1    4950 6550
	1    0    0    -1  
$EndComp
$Comp
L Device:LED D4
U 1 1 5EA62903
P 4950 6950
F 0 "D4" V 4989 6833 50  0000 R CNN
F 1 "LED" V 4898 6833 50  0000 R CNN
F 2 "LED_SMD:LED_0805_2012Metric_Pad1.15x1.40mm_HandSolder" H 4950 6950 50  0001 C CNN
F 3 "~" H 4950 6950 50  0001 C CNN
	1    4950 6950
	0    -1   -1   0   
$EndComp
$Comp
L power:GND #PWR013
U 1 1 5EA62909
P 4950 7200
F 0 "#PWR013" H 4950 6950 50  0001 C CNN
F 1 "GND" H 4955 7027 50  0000 C CNN
F 2 "" H 4950 7200 50  0001 C CNN
F 3 "" H 4950 7200 50  0001 C CNN
	1    4950 7200
	1    0    0    -1  
$EndComp
Wire Wire Line
	4950 6800 4950 6700
Wire Wire Line
	4950 7200 4950 7100
Text Notes 5150 7650 2    50   ~ 0
+12V ON
Text Notes 4700 7650 2    50   ~ 0
+12V STBY
Wire Wire Line
	1300 3100 1300 3250
Wire Wire Line
	1300 3250 1700 3250
Wire Wire Line
	2500 3250 2850 3250
Wire Wire Line
	2850 3250 2850 3150
$Comp
L Connector_Generic:Conn_01x06 J5
U 1 1 5EA791B9
P 9150 1250
F 0 "J5" H 9230 1242 50  0000 L CNN
F 1 "Conn_01x06" H 9230 1151 50  0000 L CNN
F 2 "TerminalBlock_RND:TerminalBlock_RND_205-00236_1x06_P5.08mm_Horizontal" H 9150 1250 50  0001 C CNN
F 3 "~" H 9150 1250 50  0001 C CNN
	1    9150 1250
	1    0    0    -1  
$EndComp
$Comp
L Connector_Generic:Conn_01x06 J6
U 1 1 5EA79A9F
P 9150 2000
F 0 "J6" H 9230 1992 50  0000 L CNN
F 1 "Conn_01x06" H 9230 1901 50  0000 L CNN
F 2 "TerminalBlock_RND:TerminalBlock_RND_205-00236_1x06_P5.08mm_Horizontal" H 9150 2000 50  0001 C CNN
F 3 "~" H 9150 2000 50  0001 C CNN
	1    9150 2000
	1    0    0    -1  
$EndComp
Wire Wire Line
	8800 1550 8800 1450
Wire Wire Line
	8800 1050 8950 1050
Wire Wire Line
	8800 1550 8950 1550
Wire Wire Line
	8950 1150 8800 1150
Connection ~ 8800 1150
Wire Wire Line
	8800 1150 8800 1050
Wire Wire Line
	8950 1250 8800 1250
Connection ~ 8800 1250
Wire Wire Line
	8800 1250 8800 1150
Wire Wire Line
	8950 1350 8800 1350
Connection ~ 8800 1350
Wire Wire Line
	8800 1350 8800 1250
Wire Wire Line
	8950 1450 8800 1450
Connection ~ 8800 1450
Wire Wire Line
	8800 1450 8800 1350
Wire Wire Line
	8950 1800 8800 1800
Wire Wire Line
	8800 1800 8800 1900
Wire Wire Line
	8800 2300 8950 2300
Wire Wire Line
	8950 2200 8800 2200
Connection ~ 8800 2200
Wire Wire Line
	8800 2200 8800 2300
Wire Wire Line
	8950 2100 8800 2100
Connection ~ 8800 2100
Wire Wire Line
	8800 2100 8800 2200
Wire Wire Line
	8950 2000 8800 2000
Connection ~ 8800 2000
Wire Wire Line
	8800 2000 8800 2100
Wire Wire Line
	8950 1900 8800 1900
Connection ~ 8800 1900
Wire Wire Line
	8800 1900 8800 2000
$Comp
L power:+12V #PWR018
U 1 1 5EAD2549
P 8700 950
F 0 "#PWR018" H 8700 800 50  0001 C CNN
F 1 "+12V" H 8715 1123 50  0000 C CNN
F 2 "" H 8700 950 50  0001 C CNN
F 3 "" H 8700 950 50  0001 C CNN
	1    8700 950 
	1    0    0    -1  
$EndComp
Wire Wire Line
	8800 1050 8700 1050
Wire Wire Line
	8700 1050 8700 950 
Connection ~ 8800 1050
$Comp
L power:GND #PWR019
U 1 1 5EADA92C
P 8700 2400
F 0 "#PWR019" H 8700 2150 50  0001 C CNN
F 1 "GND" H 8705 2227 50  0000 C CNN
F 2 "" H 8700 2400 50  0001 C CNN
F 3 "" H 8700 2400 50  0001 C CNN
	1    8700 2400
	1    0    0    -1  
$EndComp
Wire Wire Line
	8800 2300 8700 2300
Wire Wire Line
	8700 2300 8700 2400
Connection ~ 8800 2300
Text Label 1300 2550 0    50   ~ 0
PSU_ALARM
Wire Wire Line
	1300 2550 1850 2550
Text Label 9900 4850 2    50   ~ 0
PSU_ALARM
Wire Wire Line
	8100 4750 8750 4750
Text Label 9900 4550 2    50   ~ 0
PSU2_OK
Wire Wire Line
	9250 4550 9900 4550
Text Label 9900 4650 2    50   ~ 0
PSU2_LOAD
Wire Wire Line
	9250 4650 9900 4650
$Comp
L Connector_Generic:Conn_01x02 J9
U 1 1 5EB331AD
P 9250 3800
F 0 "J9" H 9330 3792 50  0000 L CNN
F 1 "Conn_01x02" H 9330 3701 50  0000 L CNN
F 2 "Connector_PinHeader_2.54mm:PinHeader_1x02_P2.54mm_Vertical" H 9250 3800 50  0001 C CNN
F 3 "~" H 9250 3800 50  0001 C CNN
	1    9250 3800
	1    0    0    -1  
$EndComp
$Comp
L Connector_Generic:Conn_01x02 J3
U 1 1 5EB344D3
P 6000 5300
F 0 "J3" H 6080 5292 50  0000 L CNN
F 1 "Conn_01x02" H 6080 5201 50  0000 L CNN
F 2 "Connector_PinHeader_2.54mm:PinHeader_1x02_P2.54mm_Vertical" H 6000 5300 50  0001 C CNN
F 3 "~" H 6000 5300 50  0001 C CNN
	1    6000 5300
	1    0    0    -1  
$EndComp
Text Label 8500 3900 0    50   ~ 0
PSU2_LOAD
Wire Wire Line
	8500 3900 9050 3900
Wire Wire Line
	8500 3800 9050 3800
Text Label 8500 3800 0    50   ~ 0
PSU1_LOAD
Text Label 5150 2050 2    50   ~ 0
PSU1_PRES_3v3
Wire Wire Line
	5750 2600 5750 2500
Wire Wire Line
	6400 2050 5750 2050
Text Label 6400 2050 2    50   ~ 0
PSU2_PRES_3v3
Wire Wire Line
	8750 4350 8100 4350
Text Label 8100 4350 0    50   ~ 0
PSU1_PRES_3v3
Wire Wire Line
	9900 4350 9250 4350
Text Label 9900 4350 2    50   ~ 0
PSU2_PRES_3v3
Wire Wire Line
	8100 4550 8750 4550
Text Label 8100 4550 0    50   ~ 0
PSU1_OK
Wire Wire Line
	8100 4650 8750 4650
Text Label 8100 4650 0    50   ~ 0
PSU1_LOAD
Text Label 5400 3050 3    50   ~ 0
PSU1_PON
Wire Wire Line
	5400 3050 5400 3550
Text Label 5400 4600 3    50   ~ 0
PSU2_PON
Wire Wire Line
	5400 4600 5400 5100
$Comp
L power:GND #PWR014
U 1 1 5ECF7871
P 5400 4200
F 0 "#PWR014" H 5400 3950 50  0001 C CNN
F 1 "GND" H 5405 4027 50  0000 C CNN
F 2 "" H 5400 4200 50  0001 C CNN
F 3 "" H 5400 4200 50  0001 C CNN
	1    5400 4200
	1    0    0    -1  
$EndComp
$Comp
L power:GND #PWR015
U 1 1 5ECF7E29
P 5400 5700
F 0 "#PWR015" H 5400 5450 50  0001 C CNN
F 1 "GND" H 5405 5527 50  0000 C CNN
F 2 "" H 5400 5700 50  0001 C CNN
F 3 "" H 5400 5700 50  0001 C CNN
	1    5400 5700
	1    0    0    -1  
$EndComp
Wire Wire Line
	5100 3800 5050 3800
Text Label 4100 3800 0    50   ~ 0
CMD_PSU1_ON
Text Label 4100 5350 0    50   ~ 0
CMD_PSU2_ON
Wire Wire Line
	8750 4450 8100 4450
Text Label 8100 4450 0    50   ~ 0
CMD_PSU1_ON
Wire Wire Line
	9900 4450 9250 4450
Text Label 9900 4450 2    50   ~ 0
CMD_PSU2_ON
Text Notes 4750 4850 2    50   ~ 0
signal high 3,3V\nsignal low 0,6V
Text Notes 6450 3450 2    50   ~ 0
manual control PSU1
Text Notes 6400 5050 2    50   ~ 0
manual control PSU2
Text Notes 8350 3650 0    50   ~ 0
manual share load between PSU
$Comp
L Device:R R7
U 1 1 5EDDBDAB
P 4800 3800
F 0 "R7" V 4593 3800 50  0000 C CNN
F 1 "220" V 4684 3800 50  0000 C CNN
F 2 "Resistor_SMD:R_0805_2012Metric_Pad1.15x1.40mm_HandSolder" V 4730 3800 50  0001 C CNN
F 3 "~" H 4800 3800 50  0001 C CNN
	1    4800 3800
	0    1    1    0   
$EndComp
Wire Wire Line
	4650 3800 4100 3800
$Comp
L Device:R R8
U 1 1 5EDEB29D
P 4850 5350
F 0 "R8" V 5057 5350 50  0000 C CNN
F 1 "220" V 4966 5350 50  0000 C CNN
F 2 "Resistor_SMD:R_0805_2012Metric_Pad1.15x1.40mm_HandSolder" V 4780 5350 50  0001 C CNN
F 3 "~" H 4850 5350 50  0001 C CNN
	1    4850 5350
	0    -1   -1   0   
$EndComp
Wire Wire Line
	5100 5350 5050 5350
Wire Wire Line
	4700 5350 4100 5350
$Comp
L power:GNDA #PWR06
U 1 1 5EE24035
P 2700 2700
F 0 "#PWR06" H 2700 2450 50  0001 C CNN
F 1 "GNDA" H 2705 2527 50  0000 C CNN
F 2 "" H 2700 2700 50  0001 C CNN
F 3 "" H 2700 2700 50  0001 C CNN
	1    2700 2700
	1    0    0    -1  
$EndComp
$Comp
L power:GNDA #PWR017
U 1 1 5EE24DE7
P 8650 4950
F 0 "#PWR017" H 8650 4700 50  0001 C CNN
F 1 "GNDA" H 8655 4777 50  0000 C CNN
F 2 "" H 8650 4950 50  0001 C CNN
F 3 "" H 8650 4950 50  0001 C CNN
	1    8650 4950
	1    0    0    -1  
$EndComp
Wire Wire Line
	2350 2650 2700 2650
Wire Wire Line
	2700 2650 2700 2700
Wire Wire Line
	4200 6250 4500 6250
Wire Wire Line
	5750 2050 5750 2200
Wire Wire Line
	1300 2050 1850 2050
Wire Wire Line
	4500 1950 4500 2050
Wire Wire Line
	4500 1150 4500 1050
Wire Wire Line
	3950 1050 4500 1050
Wire Wire Line
	5750 1050 5750 1200
Text Label 3950 1050 0    50   ~ 0
12VSB
Wire Wire Line
	5400 5100 5800 5100
Wire Wire Line
	5800 5100 5800 5300
Connection ~ 5400 5100
Wire Wire Line
	5400 5100 5400 5150
Wire Wire Line
	5800 5650 5400 5650
$Comp
L Connector_Generic:Conn_01x02 J2
U 1 1 5F0A96F7
P 6000 3750
F 0 "J2" H 6080 3742 50  0000 L CNN
F 1 "Conn_01x02" H 6080 3651 50  0000 L CNN
F 2 "Connector_PinHeader_2.54mm:PinHeader_1x02_P2.54mm_Vertical" H 6000 3750 50  0001 C CNN
F 3 "~" H 6000 3750 50  0001 C CNN
	1    6000 3750
	1    0    0    -1  
$EndComp
Wire Wire Line
	5400 3550 5800 3550
Wire Wire Line
	5800 3550 5800 3750
Wire Wire Line
	5800 4100 5400 4100
Connection ~ 5400 3550
Wire Wire Line
	5400 3550 5400 3600
Wire Wire Line
	5400 4100 5400 4200
Connection ~ 4500 1050
Wire Wire Line
	4500 1050 5750 1050
Text Label 1300 2050 0    50   ~ 0
PSU1_PRES
Connection ~ 4500 2050
Wire Wire Line
	4500 2050 4500 2150
Wire Wire Line
	5750 2050 5750 1950
Connection ~ 5750 2050
Wire Wire Line
	5750 1650 5750 1550
Wire Wire Line
	4500 1650 4500 1550
Wire Wire Line
	3950 1550 4500 1550
Text Label 3950 1550 0    50   ~ 0
PSU1_PRES
Wire Wire Line
	5200 1550 5750 1550
Text Label 5200 1550 0    50   ~ 0
PSU2_PRES
Wire Wire Line
	2350 2050 2900 2050
$Comp
L Device:R R2
U 1 1 5F2B1426
P 3950 6550
F 0 "R2" H 4020 6596 50  0000 L CNN
F 1 "220" H 4020 6505 50  0000 L CNN
F 2 "Resistor_SMD:R_0805_2012Metric_Pad1.15x1.40mm_HandSolder" V 3880 6550 50  0001 C CNN
F 3 "~" H 3950 6550 50  0001 C CNN
	1    3950 6550
	1    0    0    -1  
$EndComp
Wire Wire Line
	3950 6400 3950 6250
$Comp
L Device:LED D2
U 1 1 5F2B142D
P 3950 6950
F 0 "D2" V 3989 6833 50  0000 R CNN
F 1 "LED" V 3898 6833 50  0000 R CNN
F 2 "LED_SMD:LED_0805_2012Metric_Pad1.15x1.40mm_HandSolder" H 3950 6950 50  0001 C CNN
F 3 "~" H 3950 6950 50  0001 C CNN
	1    3950 6950
	0    -1   -1   0   
$EndComp
$Comp
L power:GND #PWR09
U 1 1 5F2B1433
P 3950 7200
F 0 "#PWR09" H 3950 6950 50  0001 C CNN
F 1 "GND" H 3955 7027 50  0000 C CNN
F 2 "" H 3950 7200 50  0001 C CNN
F 3 "" H 3950 7200 50  0001 C CNN
	1    3950 7200
	1    0    0    -1  
$EndComp
Wire Wire Line
	3950 6800 3950 6700
Wire Wire Line
	3550 6250 3950 6250
Text Label 3550 6250 0    50   ~ 0
PSU2_OK
$Comp
L Device:R R1
U 1 1 5F2ED9AF
P 3300 6550
F 0 "R1" H 3370 6596 50  0000 L CNN
F 1 "220" H 3370 6505 50  0000 L CNN
F 2 "Resistor_SMD:R_0805_2012Metric_Pad1.15x1.40mm_HandSolder" V 3230 6550 50  0001 C CNN
F 3 "~" H 3300 6550 50  0001 C CNN
	1    3300 6550
	1    0    0    -1  
$EndComp
Wire Wire Line
	3300 6400 3300 6250
$Comp
L Device:LED D1
U 1 1 5F2ED9B6
P 3300 6950
F 0 "D1" V 3339 6833 50  0000 R CNN
F 1 "LED" V 3248 6833 50  0000 R CNN
F 2 "LED_SMD:LED_0805_2012Metric_Pad1.15x1.40mm_HandSolder" H 3300 6950 50  0001 C CNN
F 3 "~" H 3300 6950 50  0001 C CNN
	1    3300 6950
	0    -1   -1   0   
$EndComp
$Comp
L power:GND #PWR08
U 1 1 5F2ED9BC
P 3300 7200
F 0 "#PWR08" H 3300 6950 50  0001 C CNN
F 1 "GND" H 3305 7027 50  0000 C CNN
F 2 "" H 3300 7200 50  0001 C CNN
F 3 "" H 3300 7200 50  0001 C CNN
	1    3300 7200
	1    0    0    -1  
$EndComp
Wire Wire Line
	3300 6800 3300 6700
Wire Wire Line
	2900 6250 3300 6250
Text Label 2900 6250 0    50   ~ 0
PSU1_OK
Text Notes 3450 7650 2    50   ~ 0
PSU1 OK
Text Notes 4100 7650 2    50   ~ 0
PSU2 OK
$Comp
L power:GNDA #PWR010
U 1 1 5F3D86A5
P 4500 2550
F 0 "#PWR010" H 4500 2300 50  0001 C CNN
F 1 "GNDA" H 4505 2377 50  0000 C CNN
F 2 "" H 4500 2550 50  0001 C CNN
F 3 "" H 4500 2550 50  0001 C CNN
	1    4500 2550
	1    0    0    -1  
$EndComp
$Comp
L power:GNDA #PWR016
U 1 1 5F3D8DA1
P 5750 2600
F 0 "#PWR016" H 5750 2350 50  0001 C CNN
F 1 "GNDA" H 5755 2427 50  0000 C CNN
F 2 "" H 5750 2600 50  0001 C CNN
F 3 "" H 5750 2600 50  0001 C CNN
	1    5750 2600
	1    0    0    -1  
$EndComp
$Comp
L power:GNDA #PWR011
U 1 1 5F3E08D1
P 4500 7200
F 0 "#PWR011" H 4500 6950 50  0001 C CNN
F 1 "GNDA" H 4505 7027 50  0000 C CNN
F 2 "" H 4500 7200 50  0001 C CNN
F 3 "" H 4500 7200 50  0001 C CNN
	1    4500 7200
	1    0    0    -1  
$EndComp
Text Notes 1050 900  0    50   ~ 0
PSU1-2 PON: pulled-up internally at 3,3V
Text Notes 1050 800  0    50   ~ 0
PSU1-2 PRES: pulled-down internally
Text Notes 1050 1000 0    50   ~ 0
PSU1-2 OK: value 0 - 3,3V
Text Notes 1050 1100 0    50   ~ 0
PSU1-2 LOAD: value 0 - 3,3V
Text Notes 7950 5400 0    50   ~ 0
PIN 1-2
Text Notes 8500 5400 0    50   ~ 0
DIG OUT
Text Notes 9100 5450 0    50   ~ 0
HIGH: PSU assente nello slot\nLOW: PSU presente nello slot
Text Notes 7950 5600 0    50   ~ 0
PIN 3-4
Text Notes 8500 5600 0    50   ~ 0
DIG IN
Text Notes 9100 5650 0    50   ~ 0
HIGH(3,3V): PSU power on\nLOW: PSU power off
Text Notes 7950 5800 0    50   ~ 0
PIN 5-6
Text Notes 8500 5800 0    50   ~ 0
AN OUT
Text Notes 9100 5850 0    50   ~ 0
3,3V: PSU on\n0,5V: PSU off
Text Notes 7950 6000 0    50   ~ 0
PIN 7-8
Text Notes 8500 6000 0    50   ~ 0
AN OUT
Text Notes 9100 6050 0    50   ~ 0
3,3V: PSU full load\n0V: PSU no load
Text Notes 7950 6200 0    50   ~ 0
PIN 9
Text Notes 8500 6200 0    50   ~ 0
DIG OUT
Text Notes 9100 6250 0    50   ~ 0
HIGH: PSU OK\nLOW: PSU ALARM
Text Notes 7950 6400 0    50   ~ 0
PIN 10-12
Text Notes 8500 6400 0    50   ~ 0
DIG IN/OUT
Text Notes 9100 6400 0    50   ~ 0
PMBus
Wire Notes Line
	8450 5250 8450 6450
Wire Notes Line
	7850 6450 7850 5250
Wire Notes Line
	9050 5250 9050 6450
Wire Notes Line
	10550 5250 10550 6450
Wire Notes Line
	7850 5250 10550 5250
Wire Notes Line
	7850 6450 10550 6450
Wire Notes Line
	7850 5450 10550 5450
Wire Notes Line
	7850 5650 10550 5650
Wire Notes Line
	7850 5850 10550 5850
Wire Notes Line
	7850 6050 10550 6050
Wire Notes Line
	7850 6250 10550 6250
$Comp
L Connector_Generic:Conn_01x02 J7
U 1 1 5F5ABC76
P 9150 2750
F 0 "J7" H 9230 2742 50  0000 L CNN
F 1 "Conn_01x02" H 9230 2651 50  0000 L CNN
F 2 "TerminalBlock_RND:TerminalBlock_RND_205-00232_1x02_P5.08mm_Horizontal" H 9150 2750 50  0001 C CNN
F 3 "~" H 9150 2750 50  0001 C CNN
	1    9150 2750
	1    0    0    -1  
$EndComp
$Comp
L Connector_Generic:Conn_01x02 J8
U 1 1 5F5B7826
P 9150 3150
F 0 "J8" H 9230 3142 50  0000 L CNN
F 1 "Conn_01x02" H 9230 3051 50  0000 L CNN
F 2 "Connector_PinSocket_2.54mm:PinSocket_1x02_P2.54mm_Vertical" H 9150 3150 50  0001 C CNN
F 3 "~" H 9150 3150 50  0001 C CNN
	1    9150 3150
	1    0    0    -1  
$EndComp
Wire Wire Line
	8950 2750 8400 2750
Text Label 8400 2750 0    50   ~ 0
12VSB
Wire Wire Line
	8950 3150 8400 3150
Text Label 8400 3150 0    50   ~ 0
12VSB
$Comp
L power:GNDA #PWR020
U 1 1 5F5E3BAE
P 8850 2900
F 0 "#PWR020" H 8850 2650 50  0001 C CNN
F 1 "GNDA" H 8855 2727 50  0000 C CNN
F 2 "" H 8850 2900 50  0001 C CNN
F 3 "" H 8850 2900 50  0001 C CNN
	1    8850 2900
	1    0    0    -1  
$EndComp
$Comp
L power:GNDA #PWR021
U 1 1 5F5EF992
P 8850 3300
F 0 "#PWR021" H 8850 3050 50  0001 C CNN
F 1 "GNDA" H 8855 3127 50  0000 C CNN
F 2 "" H 8850 3300 50  0001 C CNN
F 3 "" H 8850 3300 50  0001 C CNN
	1    8850 3300
	1    0    0    -1  
$EndComp
Wire Wire Line
	8950 2850 8850 2850
Wire Wire Line
	8850 2850 8850 2900
Wire Wire Line
	8950 3250 8850 3250
Wire Wire Line
	8850 3250 8850 3300
Wire Wire Line
	1850 6550 1850 6500
Wire Wire Line
	1850 6850 1850 6900
Connection ~ 1200 6900
Wire Wire Line
	1850 6900 1200 6900
Wire Wire Line
	1200 6850 1200 6900
Connection ~ 1200 6500
Wire Wire Line
	1200 6550 1200 6500
Wire Wire Line
	1200 6500 1200 6450
Wire Wire Line
	1850 6500 1200 6500
$Comp
L Device:CP C2
U 1 1 5F64F5BF
P 1850 6700
F 0 "C2" H 1968 6746 50  0000 L CNN
F 1 "470uF 16V" H 1968 6655 50  0000 L CNN
F 2 "Capacitor_THT:CP_Radial_D8.0mm_P3.50mm" H 1888 6550 50  0001 C CNN
F 3 "~" H 1850 6700 50  0001 C CNN
	1    1850 6700
	1    0    0    -1  
$EndComp
$Comp
L power:+12V #PWR01
U 1 1 5F64234B
P 1200 6450
F 0 "#PWR01" H 1200 6300 50  0001 C CNN
F 1 "+12V" H 1215 6623 50  0000 C CNN
F 2 "" H 1200 6450 50  0001 C CNN
F 3 "" H 1200 6450 50  0001 C CNN
	1    1200 6450
	1    0    0    -1  
$EndComp
$Comp
L power:GND #PWR02
U 1 1 5F6312CC
P 1200 7050
F 0 "#PWR02" H 1200 6800 50  0001 C CNN
F 1 "GND" H 1205 6877 50  0000 C CNN
F 2 "" H 1200 7050 50  0001 C CNN
F 3 "" H 1200 7050 50  0001 C CNN
	1    1200 7050
	1    0    0    -1  
$EndComp
$Comp
L Device:CP C1
U 1 1 5F627510
P 1200 6700
F 0 "C1" H 1318 6746 50  0000 L CNN
F 1 "470uF 16V" H 1318 6655 50  0000 L CNN
F 2 "Capacitor_THT:CP_Radial_D8.0mm_P3.50mm" H 1238 6550 50  0001 C CNN
F 3 "~" H 1200 6700 50  0001 C CNN
	1    1200 6700
	1    0    0    -1  
$EndComp
Wire Wire Line
	1200 6900 1200 7050
NoConn ~ 1850 2450
Connection ~ 4500 1550
Wire Wire Line
	4500 1550 4500 1450
Connection ~ 5750 1550
Wire Wire Line
	5750 1550 5750 1500
Wire Wire Line
	4950 6400 4950 6250
Wire Wire Line
	3300 7200 3300 7100
$Comp
L Transistor_FET:BSS138 Q2
U 1 1 5EA509E6
P 5300 5350
F 0 "Q2" H 5504 5396 50  0000 L CNN
F 1 "BSS138" H 5504 5305 50  0000 L CNN
F 2 "Package_TO_SOT_SMD:SOT-23_Handsoldering" H 5500 5275 50  0001 L CIN
F 3 "https://www.fairchildsemi.com/datasheets/BS/BSS138.pdf" H 5300 5350 50  0001 L CNN
	1    5300 5350
	1    0    0    -1  
$EndComp
$Comp
L Device:R_Small R11
U 1 1 5EA785C4
P 5050 5500
F 0 "R11" H 5109 5546 50  0000 L CNN
F 1 "10k" H 5100 5450 50  0000 L CNN
F 2 "Resistor_SMD:R_0805_2012Metric_Pad1.15x1.40mm_HandSolder" H 5050 5500 50  0001 C CNN
F 3 "~" H 5050 5500 50  0001 C CNN
	1    5050 5500
	1    0    0    -1  
$EndComp
Wire Wire Line
	5050 5400 5050 5350
Connection ~ 5050 5350
Wire Wire Line
	5050 5350 5000 5350
Wire Wire Line
	5050 5600 5050 5650
Wire Wire Line
	5050 5650 5400 5650
Connection ~ 5400 5650
Wire Wire Line
	5400 5650 5400 5700
Wire Wire Line
	5400 5550 5400 5650
Wire Wire Line
	5800 5400 5800 5650
$Comp
L Transistor_FET:BSS138 Q1
U 1 1 5EACD9B0
P 5300 3800
F 0 "Q1" H 5504 3846 50  0000 L CNN
F 1 "BSS138" H 5504 3755 50  0000 L CNN
F 2 "Package_TO_SOT_SMD:SOT-23_Handsoldering" H 5500 3725 50  0001 L CIN
F 3 "https://www.fairchildsemi.com/datasheets/BS/BSS138.pdf" H 5300 3800 50  0001 L CNN
	1    5300 3800
	1    0    0    -1  
$EndComp
$Comp
L Device:R_Small R10
U 1 1 5EACD9B6
P 5050 3950
F 0 "R10" H 5109 3996 50  0000 L CNN
F 1 "10k" H 5100 3900 50  0000 L CNN
F 2 "Resistor_SMD:R_0805_2012Metric_Pad1.15x1.40mm_HandSolder" H 5050 3950 50  0001 C CNN
F 3 "~" H 5050 3950 50  0001 C CNN
	1    5050 3950
	1    0    0    -1  
$EndComp
Wire Wire Line
	5050 3850 5050 3800
Wire Wire Line
	5400 4000 5400 4100
Wire Wire Line
	5050 4050 5050 4100
Wire Wire Line
	5050 4100 5400 4100
Connection ~ 5400 4100
Wire Wire Line
	5800 3850 5800 4100
Wire Wire Line
	8650 4950 8650 4850
Wire Wire Line
	3950 7100 3950 7200
Wire Wire Line
	4950 3800 5050 3800
Connection ~ 5050 3800
$Comp
L Mechanical:MountingHole_Pad H1
U 1 1 5EB6FEE8
P 800 7450
F 0 "H1" H 900 7499 50  0000 L CNN
F 1 "MountingHole_Pad" H 900 7408 50  0000 L CNN
F 2 "MountingHole:MountingHole_3.2mm_M3_ISO14580_Pad" H 800 7450 50  0001 C CNN
F 3 "~" H 800 7450 50  0001 C CNN
	1    800  7450
	1    0    0    -1  
$EndComp
$Comp
L Mechanical:MountingHole_Pad H2
U 1 1 5EB701CF
P 1000 7450
F 0 "H2" H 1100 7499 50  0000 L CNN
F 1 "MountingHole_Pad" H 1100 7408 50  0000 L CNN
F 2 "MountingHole:MountingHole_3.2mm_M3_ISO14580_Pad" H 1000 7450 50  0001 C CNN
F 3 "~" H 1000 7450 50  0001 C CNN
	1    1000 7450
	1    0    0    -1  
$EndComp
$Comp
L Mechanical:MountingHole_Pad H3
U 1 1 5EB70429
P 1200 7450
F 0 "H3" H 1300 7499 50  0000 L CNN
F 1 "MountingHole_Pad" H 1300 7408 50  0000 L CNN
F 2 "MountingHole:MountingHole_3.2mm_M3_ISO14580_Pad" H 1200 7450 50  0001 C CNN
F 3 "~" H 1200 7450 50  0001 C CNN
	1    1200 7450
	1    0    0    -1  
$EndComp
$Comp
L Mechanical:MountingHole_Pad H4
U 1 1 5EB70743
P 1400 7450
F 0 "H4" H 1500 7499 50  0000 L CNN
F 1 "MountingHole_Pad" H 1500 7408 50  0000 L CNN
F 2 "MountingHole:MountingHole_3.2mm_M3_ISO14580_Pad" H 1400 7450 50  0001 C CNN
F 3 "~" H 1400 7450 50  0001 C CNN
	1    1400 7450
	1    0    0    -1  
$EndComp
NoConn ~ 800  7550
NoConn ~ 1000 7550
$Comp
L power:GND #PWR0101
U 1 1 5EB9F879
P 1200 7550
F 0 "#PWR0101" H 1200 7300 50  0001 C CNN
F 1 "GND" H 1205 7377 50  0000 C CNN
F 2 "" H 1200 7550 50  0001 C CNN
F 3 "" H 1200 7550 50  0001 C CNN
	1    1200 7550
	1    0    0    -1  
$EndComp
$Comp
L power:GND #PWR0102
U 1 1 5EBAE29E
P 1400 7550
F 0 "#PWR0102" H 1400 7300 50  0001 C CNN
F 1 "GND" H 1405 7377 50  0000 C CNN
F 2 "" H 1400 7550 50  0001 C CNN
F 3 "" H 1400 7550 50  0001 C CNN
	1    1400 7550
	1    0    0    -1  
$EndComp
$Comp
L Mechanical:Fiducial FID1
U 1 1 5EBDD1B9
P 1800 7400
F 0 "FID1" H 1885 7446 50  0000 L CNN
F 1 "Fiducial" H 1885 7355 50  0000 L CNN
F 2 "Fiducial:Fiducial_1mm_Mask2mm" H 1800 7400 50  0001 C CNN
F 3 "~" H 1800 7400 50  0001 C CNN
	1    1800 7400
	1    0    0    -1  
$EndComp
$Comp
L Mechanical:Fiducial FID2
U 1 1 5EBDD57E
P 1800 7600
F 0 "FID2" H 1885 7646 50  0000 L CNN
F 1 "Fiducial" H 1885 7555 50  0000 L CNN
F 2 "Fiducial:Fiducial_1mm_Mask2mm" H 1800 7600 50  0001 C CNN
F 3 "~" H 1800 7600 50  0001 C CNN
	1    1800 7600
	1    0    0    -1  
$EndComp
$EndSCHEMATC
